Olink_RV_dysf
…
# Summarise: how many proteins above LOD per sample
lod_summary <- npx_lod %>%
  group_by(SampleID, SampleType, Matrix) %>%
  summarise(
    n_proteins      = dplyr::n(),
    n_above_LOD  = sum(above_LOD, na.rm = TRUE),
    frac_above_LOD  = n_above_LOD / n_proteins,
    .groups = "drop"
  )

lod_summary

# A tibble: 96 × 6
   SampleID SampleType Matrix      n_proteins n_above_LOD frac_above_LOD
   <chr>    <chr>      <chr>            <int>       <int>          <dbl>
 1 EC1      SAMPLE     Medium            1034         280        0.271  
 2 EC2      SAMPLE     Supernatant       1034         623        0.603  
 3 GD1      SAMPLE     Buffer            1034           6        0.00580
 4 GD2      SAMPLE     Lysate            1034         574        0.555  
 5 GD3      SAMPLE     Lysate            1034         614        0.594  
 6 KR1      SAMPLE     Buffer            1034          10        0.00967
 7 KR2      SAMPLE     Lysate            1034         667        0.645  
 8 KR3      SAMPLE     Lysate            1034         619        0.599  
 9 L1       SAMPLE     Serum             1034         749        0.724  
10 L10      SAMPLE     Serum             1034         801        0.775  
# ℹ 86 more rows
…
